%YAML 1.1
%TAG !u! tag:unity3d.com,2011:
--- !u!29 &1
OcclusionCullingSettings:
  m_ObjectHideFlags: 0
  serializedVersion: 2
  m_OcclusionBakeSettings:
    smallestOccluder: 5
    smallestHole: 0.25
    backfaceThreshold: 100
  m_SceneGUID: 00000000000000000000000000000000
  m_OcclusionCullingData: {fileID: 0}
--- !u!104 &2
RenderSettings:
  m_ObjectHideFlags: 0
  serializedVersion: 9
  m_Fog: 0
  m_FogColor: {r: 0.5, g: 0.5, b: 0.5, a: 1}
  m_FogMode: 3
  m_FogDensity: 0.01
  m_LinearFogStart: 0
  m_LinearFogEnd: 300
  m_AmbientSkyColor: {r: 0.88620687, g: 0.88763696, b: 1, a: 1}
  m_AmbientEquatorColor: {r: 0.99264705, g: 0.72228664, b: 0.54424447, a: 1}
  m_AmbientGroundColor: {r: 0.25735295, g: 0.21268223, b: 0.10547252, a: 1}
  m_AmbientIntensity: 0.37
  m_AmbientMode: 1
  m_SubtractiveShadowColor: {r: 0.42, g: 0.478, b: 0.627, a: 1}
  m_SkyboxMaterial: {fileID: 2100000, guid: 84c875c45120f42468d84828400916ee, type: 2}
  m_HaloStrength: 0.5
  m_FlareStrength: 1
  m_FlareFadeSpeed: 3
  m_HaloTexture: {fileID: 0}
  m_SpotCookie: {fileID: 10001, guid: 0000000000000000e000000000000000, type: 0}
  m_DefaultReflectionMode: 0
  m_DefaultReflectionResolution: 128
  m_ReflectionBounces: 1
  m_ReflectionIntensity: 1
  m_CustomReflection: {fileID: 0}
  m_Sun: {fileID: 0}
  m_IndirectSpecularColor: {r: 0, g: 0, b: 0, a: 1}
  m_UseRadianceAmbientProbe: 0
--- !u!157 &3
LightmapSettings:
  m_ObjectHideFlags: 0
  serializedVersion: 12
  m_GIWorkflowMode: 0
  m_GISettings:
    serializedVersion: 2
    m_BounceScale: 1
    m_IndirectOutputScale: 1
    m_AlbedoBoost: 1
    m_EnvironmentLightingMode: 0
    m_EnableBakedLightmaps: 1
    m_EnableRealtimeLightmaps: 1
  m_LightmapEditorSettings:
    serializedVersion: 12
    m_Resolution: 2
    m_BakeResolution: 40
    m_AtlasSize: 1024
    m_AO: 0
    m_AOMaxDistance: 1
    m_CompAOExponent: 1
    m_CompAOExponentDirect: 0
    m_ExtractAmbientOcclusion: 0
    m_Padding: 2
    m_LightmapParameters: {fileID: 0}
    m_LightmapsBakeMode: 1
    m_TextureCompression: 1
    m_FinalGather: 0
    m_FinalGatherFiltering: 1
    m_FinalGatherRayCount: 256
    m_ReflectionCompression: 2
    m_MixedBakeMode: 2
    m_BakeBackend: 0
    m_PVRSampling: 1
    m_PVRDirectSampleCount: 32
    m_PVRSampleCount: 500
    m_PVRBounces: 2
    m_PVREnvironmentSampleCount: 500
    m_PVREnvironmentReferencePointCount: 2048
    m_PVRFilteringMode: 2
    m_PVRDenoiserTypeDirect: 0
    m_PVRDenoiserTypeIndirect: 0
    m_PVRDenoiserTypeAO: 0
    m_PVRFilterTypeDirect: 0
    m_PVRFilterTypeIndirect: 0
    m_PVRFilterTypeAO: 0
    m_PVREnvironmentMIS: 0
    m_PVRCulling: 1
    m_PVRFilteringGaussRadiusDirect: 1
    m_PVRFilteringGaussRadiusIndirect: 5
    m_PVRFilteringGaussRadiusAO: 2
    m_PVRFilteringAtrousPositionSigmaDirect: 0.5
    m_PVRFilteringAtrousPositionSigmaIndirect: 2
    m_PVRFilteringAtrousPositionSigmaAO: 1
    m_ExportTrainingData: 0
    m_TrainingDataDestination: TrainingData
    m_LightProbeSampleCountMultiplier: 4
  m_LightingDataAsset: {fileID: 0}
  m_LightingSettings: {fileID: 4890085278179872738, guid: 4b91f9fc289e3a846874a00f6c934a86, type: 2}
--- !u!196 &4
NavMeshSettings:
  serializedVersion: 2
  m_ObjectHideFlags: 0
  m_BuildSettings:
    serializedVersion: 2
    agentTypeID: 0
    agentRadius: 0.5
    agentHeight: 2
    agentSlope: 45
    agentClimb: 0.4
    ledgeDropHeight: 0
    maxJumpAcrossDistance: 0
    minRegionArea: 2
    manualCellSize: 0
    cellSize: 0.16666667
    manualTileSize: 0
    tileSize: 256
    accuratePlacement: 0
    maxJobWorkers: 0
    preserveTilesOutsideBounds: 0
    debug:
      m_Flags: 0
  m_NavMeshData: {fileID: 0}
--- !u!1 &163770580
GameObject:
  m_ObjectHideFlags: 0
  m_CorrespondingSourceObject: {fileID: 0}
  m_PrefabInstance: {fileID: 0}
  m_PrefabAsset: {fileID: 0}
  serializedVersion: 6
  m_Component:
  - component: {fileID: 163770582}
  - component: {fileID: 163770581}
  m_Layer: 0
  m_Name: Directional Light
  m_TagString: Untagged
  m_Icon: {fileID: 0}
  m_NavMeshLayer: 0
  m_StaticEditorFlags: 0
  m_IsActive: 1
--- !u!108 &163770581
Light:
  m_ObjectHideFlags: 0
  m_CorrespondingSourceObject: {fileID: 0}
  m_PrefabInstance: {fileID: 0}
  m_PrefabAsset: {fileID: 0}
  m_GameObject: {fileID: 163770580}
  m_Enabled: 1
  serializedVersion: 10
  m_Type: 1
  m_Shape: 0
  m_Color: {r: 1, g: 0.9020443, b: 0.8586207, a: 1}
  m_Intensity: 0.78
  m_Range: 10
  m_SpotAngle: 30
  m_InnerSpotAngle: 21.80208
  m_CookieSize: 10
  m_Shadows:
    m_Type: 2
    m_Resolution: -1
    m_CustomResolution: -1
    m_Strength: 1
    m_Bias: 0.05
    m_NormalBias: 0.4
    m_NearPlane: 0.2
    m_CullingMatrixOverride:
      e00: 1
      e01: 0
      e02: 0
      e03: 0
      e10: 0
      e11: 1
      e12: 0
      e13: 0
      e20: 0
      e21: 0
      e22: 1
      e23: 0
      e30: 0
      e31: 0
      e32: 0
      e33: 1
    m_UseCullingMatrixOverride: 0
  m_Cookie: {fileID: 0}
  m_DrawHalo: 0
  m_Flare: {fileID: 0}
  m_RenderMode: 0
  m_CullingMask:
    serializedVersion: 2
    m_Bits: 4294967295
  m_RenderingLayerMask: 1
  m_Lightmapping: 4
  m_LightShadowCasterMode: 0
  m_AreaSize: {x: 1, y: 1}
  m_BounceIntensity: 1
  m_ColorTemperature: 6570
  m_UseColorTemperature: 0
  m_BoundingSphereOverride: {x: 0, y: 0, z: 0, w: 0}
  m_UseBoundingSphereOverride: 0
  m_UseViewFrustumForShadowCasterCull: 1
  m_ShadowRadius: 0
  m_ShadowAngle: 0
--- !u!4 &163770582
Transform:
  m_ObjectHideFlags: 0
  m_CorrespondingSourceObject: {fileID: 0}
  m_PrefabInstance: {fileID: 0}
  m_PrefabAsset: {fileID: 0}
  m_GameObject: {fileID: 163770580}
  m_LocalRotation: {x: -0.6948463, y: -0.5052286, z: 0.50623316, w: -0.07523805}
  m_LocalPosition: {x: 0, y: 3, z: 0}
  m_LocalScale: {x: 1, y: 1, z: 1}
  m_Children: []
  m_Father: {fileID: 0}
  m_RootOrder: 1
  m_LocalEulerAnglesHint: {x: 38.031002, y: -127.19101, z: 127.37701}
--- !u!1001 &890235428
PrefabInstance:
  m_ObjectHideFlags: 0
  serializedVersion: 2
  m_Modification:
    m_TransformParent: {fileID: 0}
    m_Modifications:
    - target: {fileID: 4032395409819742, guid: 6d9ffac09535f23449762fd769a551d4, type: 3}
      propertyPath: m_RootOrder
      value: 3
      objectReference: {fileID: 0}
    - target: {fileID: 4032395409819742, guid: 6d9ffac09535f23449762fd769a551d4, type: 3}
      propertyPath: m_LocalPosition.x
      value: 4.5972323
      objectReference: {fileID: 0}
    - target: {fileID: 4032395409819742, guid: 6d9ffac09535f23449762fd769a551d4, type: 3}
      propertyPath: m_LocalPosition.y
      value: 0
      objectReference: {fileID: 0}
    - target: {fileID: 4032395409819742, guid: 6d9ffac09535f23449762fd769a551d4, type: 3}
      propertyPath: m_LocalPosition.z
      value: 0.035115242
      objectReference: {fileID: 0}
    - target: {fileID: 4032395409819742, guid: 6d9ffac09535f23449762fd769a551d4, type: 3}
      propertyPath: m_LocalRotation.w
      value: 0.9477381
      objectReference: {fileID: 0}
    - target: {fileID: 4032395409819742, guid: 6d9ffac09535f23449762fd769a551d4, type: 3}
      propertyPath: m_LocalRotation.x
      value: 0.00000007720308
      objectReference: {fileID: 0}
    - target: {fileID: 4032395409819742, guid: 6d9ffac09535f23449762fd769a551d4, type: 3}
      propertyPath: m_LocalRotation.y
      value: -0.3190493
      objectReference: {fileID: 0}
    - target: {fileID: 4032395409819742, guid: 6d9ffac09535f23449762fd769a551d4, type: 3}
      propertyPath: m_LocalRotation.z
      value: -0.000000025989866
      objectReference: {fileID: 0}
    - target: {fileID: 4032395409819742, guid: 6d9ffac09535f23449762fd769a551d4, type: 3}
      propertyPath: m_LocalEulerAnglesHint.y
      value: -37.211002
      objectReference: {fileID: 0}
    m_RemovedComponents: []
  m_SourcePrefab: {fileID: 100100000, guid: 6d9ffac09535f23449762fd769a551d4, type: 3}
--- !u!1 &1129739522
GameObject:
  m_ObjectHideFlags: 0
  m_CorrespondingSourceObject: {fileID: 0}
  m_PrefabInstance: {fileID: 0}
  m_PrefabAsset: {fileID: 0}
  serializedVersion: 6
  m_Component:
  - component: {fileID: 1129739527}
  - component: {fileID: 1129739526}
  - component: {fileID: 1129739524}
  - component: {fileID: 1129739523}
  - component: {fileID: 1129739528}
  m_Layer: 0
  m_Name: Main Camera
  m_TagString: MainCamera
  m_Icon: {fileID: 0}
  m_NavMeshLayer: 0
  m_StaticEditorFlags: 0
  m_IsActive: 1
--- !u!81 &1129739523
AudioListener:
  m_ObjectHideFlags: 0
  m_CorrespondingSourceObject: {fileID: 0}
  m_PrefabInstance: {fileID: 0}
  m_PrefabAsset: {fileID: 0}
  m_GameObject: {fileID: 1129739522}
  m_Enabled: 1
--- !u!124 &1129739524
Behaviour:
  m_ObjectHideFlags: 0
  m_CorrespondingSourceObject: {fileID: 0}
  m_PrefabInstance: {fileID: 0}
  m_PrefabAsset: {fileID: 0}
  m_GameObject: {fileID: 1129739522}
  m_Enabled: 1
--- !u!20 &1129739526
Camera:
  m_ObjectHideFlags: 0
  m_CorrespondingSourceObject: {fileID: 0}
  m_PrefabInstance: {fileID: 0}
  m_PrefabAsset: {fileID: 0}
  m_GameObject: {fileID: 1129739522}
  m_Enabled: 1
  serializedVersion: 2
  m_ClearFlags: 1
  m_BackGroundColor: {r: 0.19215687, g: 0.3019608, b: 0.4745098, a: 0}
  m_projectionMatrixMode: 1
  m_GateFitMode: 2
  m_FOVAxisMode: 0
  m_SensorSize: {x: 36, y: 24}
  m_LensShift: {x: 0, y: 0}
  m_FocalLength: 50
  m_NormalizedViewPortRect:
    serializedVersion: 2
    x: 0
    y: 0
    width: 1
    height: 1
  near clip plane: 0.3
  far clip plane: 1000
  field of view: 35
  orthographic: 0
  orthographic size: 5
  m_Depth: -1
  m_CullingMask:
    serializedVersion: 2
    m_Bits: 4294967295
  m_RenderingPath: -1
  m_TargetTexture: {fileID: 0}
  m_TargetDisplay: 0
  m_TargetEye: 3
  m_HDR: 1
  m_AllowMSAA: 1
  m_AllowDynamicResolution: 0
  m_ForceIntoRT: 0
  m_OcclusionCulling: 1
  m_StereoConvergence: 10
  m_StereoSeparation: 0.022
--- !u!4 &1129739527
Transform:
  m_ObjectHideFlags: 0
  m_CorrespondingSourceObject: {fileID: 0}
  m_PrefabInstance: {fileID: 0}
  m_PrefabAsset: {fileID: 0}
  m_GameObject: {fileID: 1129739522}
  m_LocalRotation: {x: 0.0026678138, y: -0.9777518, z: 0.20937814, w: 0.012458128}
  m_LocalPosition: {x: 1.36, y: 19.15, z: 29.84}
  m_LocalScale: {x: 1, y: 1, z: 1}
  m_Children: []
  m_Father: {fileID: 0}
  m_RootOrder: 0
  m_LocalEulerAnglesHint: {x: 24.174002, y: -178.54001, z: 0}
--- !u!114 &1129739528
MonoBehaviour:
  m_ObjectHideFlags: 0
  m_CorrespondingSourceObject: {fileID: 0}
  m_PrefabInstance: {fileID: 0}
  m_PrefabAsset: {fileID: 0}
  m_GameObject: {fileID: 1129739522}
  m_Enabled: 1
  m_EditorHideFlags: 0
  m_Script: {fileID: 11500000, guid: ff26db721962cdf4a8edcdfa9a767d2a, type: 3}
  m_Name: 
  m_EditorClassIdentifier: 
  profile: {fileID: 11400000, guid: 626ad95237a4b9c4ca861ab494d54fa4, type: 2}
--- !u!1001 &1725340843
PrefabInstance:
  m_ObjectHideFlags: 0
  serializedVersion: 2
  m_Modification:
    m_TransformParent: {fileID: 0}
    m_Modifications:
    - target: {fileID: 1594832356460434, guid: 586534c0f9a745b4086c007888993b85, type: 3}
      propertyPath: m_Name
      value: Tree (2)
      objectReference: {fileID: 0}
    - target: {fileID: 4872504654109266, guid: 586534c0f9a745b4086c007888993b85, type: 3}
      propertyPath: m_RootOrder
      value: 6
      objectReference: {fileID: 0}
    - target: {fileID: 4872504654109266, guid: 586534c0f9a745b4086c007888993b85, type: 3}
      propertyPath: m_LocalScale.x
      value: 1.1023607
      objectReference: {fileID: 0}
    - target: {fileID: 4872504654109266, guid: 586534c0f9a745b4086c007888993b85, type: 3}
      propertyPath: m_LocalScale.y
      value: 1.1023607
      objectReference: {fileID: 0}
    - target: {fileID: 4872504654109266, guid: 586534c0f9a745b4086c007888993b85, type: 3}
      propertyPath: m_LocalScale.z
      value: 1.1023607
      objectReference: {fileID: 0}
    - target: {fileID: 4872504654109266, guid: 586534c0f9a745b4086c007888993b85, type: 3}
      propertyPath: m_LocalPosition.x
      value: -5.2953386
      objectReference: {fileID: 0}
    - target: {fileID: 4872504654109266, guid: 586534c0f9a745b4086c007888993b85, type: 3}
      propertyPath: m_LocalPosition.y
      value: 0
      objectReference: {fileID: 0}
    - target: {fileID: 4872504654109266, guid: 586534c0f9a745b4086c007888993b85, type: 3}
      propertyPath: m_LocalPosition.z
      value: -2.737019
      objectReference: {fileID: 0}
    - target: {fileID: 4872504654109266, guid: 586534c0f9a745b4086c007888993b85, type: 3}
      propertyPath: m_LocalRotation.w
      value: 0.97863275
      objectReference: {fileID: 0}
    - target: {fileID: 4872504654109266, guid: 586534c0f9a745b4086c007888993b85, type: 3}
      propertyPath: m_LocalRotation.x
      value: 0.0015209743
      objectReference: {fileID: 0}
    - target: {fileID: 4872504654109266, guid: 586534c0f9a745b4086c007888993b85, type: 3}
      propertyPath: m_LocalRotation.y
      value: -0.20544825
      objectReference: {fileID: 0}
    - target: {fileID: 4872504654109266, guid: 586534c0f9a745b4086c007888993b85, type: 3}
      propertyPath: m_LocalRotation.z
      value: 0.0081655225
      objectReference: {fileID: 0}
    - target: {fileID: 4872504654109266, guid: 586534c0f9a745b4086c007888993b85, type: 3}
      propertyPath: m_LocalEulerAnglesHint.x
      value: 0.363
      objectReference: {fileID: 0}
    - target: {fileID: 4872504654109266, guid: 586534c0f9a745b4086c007888993b85, type: 3}
      propertyPath: m_LocalEulerAnglesHint.y
      value: -23.710001
      objectReference: {fileID: 0}
    - target: {fileID: 4872504654109266, guid: 586534c0f9a745b4086c007888993b85, type: 3}
      propertyPath: m_LocalEulerAnglesHint.z
      value: 0.88000005
      objectReference: {fileID: 0}
    m_RemovedComponents:
    - {fileID: 95627381219248930, guid: 586534c0f9a745b4086c007888993b85, type: 3}
  m_SourcePrefab: {fileID: 100100000, guid: 586534c0f9a745b4086c007888993b85, type: 3}
--- !u!1001 &1821438762
PrefabInstance:
  m_ObjectHideFlags: 0
  serializedVersion: 2
  m_Modification:
    m_TransformParent: {fileID: 0}
    m_Modifications:
    - target: {fileID: 4872504654109266, guid: 586534c0f9a745b4086c007888993b85, type: 3}
      propertyPath: m_RootOrder
      value: 2
      objectReference: {fileID: 0}
    - target: {fileID: 4872504654109266, guid: 586534c0f9a745b4086c007888993b85, type: 3}
      propertyPath: m_LocalScale.x
      value: 1.0533799
      objectReference: {fileID: 0}
    - target: {fileID: 4872504654109266, guid: 586534c0f9a745b4086c007888993b85, type: 3}
      propertyPath: m_LocalScale.y
      value: 1.0533799
      objectReference: {fileID: 0}
    - target: {fileID: 4872504654109266, guid: 586534c0f9a745b4086c007888993b85, type: 3}
      propertyPath: m_LocalScale.z
      value: 1.0533799
      objectReference: {fileID: 0}
    - target: {fileID: 4872504654109266, guid: 586534c0f9a745b4086c007888993b85, type: 3}
      propertyPath: m_LocalPosition.x
      value: -6.5
      objectReference: {fileID: 0}
    - target: {fileID: 4872504654109266, guid: 586534c0f9a745b4086c007888993b85, type: 3}
      propertyPath: m_LocalPosition.y
      value: -0.00017428398
      objectReference: {fileID: 0}
    - target: {fileID: 4872504654109266, guid: 586534c0f9a745b4086c007888993b85, type: 3}
      propertyPath: m_LocalPosition.z
      value: -0.9
      objectReference: {fileID: 0}
    - target: {fileID: 4872504654109266, guid: 586534c0f9a745b4086c007888993b85, type: 3}
      propertyPath: m_LocalRotation.w
      value: 0.8394529
      objectReference: {fileID: 0}
    - target: {fileID: 4872504654109266, guid: 586534c0f9a745b4086c007888993b85, type: 3}
      propertyPath: m_LocalRotation.x
      value: 0.006830524
      objectReference: {fileID: 0}
    - target: {fileID: 4872504654109266, guid: 586534c0f9a745b4086c007888993b85, type: 3}
      propertyPath: m_LocalRotation.y
      value: 0.54336905
      objectReference: {fileID: 0}
    - target: {fileID: 4872504654109266, guid: 586534c0f9a745b4086c007888993b85, type: 3}
      propertyPath: m_LocalRotation.z
      value: 0.004725774
      objectReference: {fileID: 0}
    - target: {fileID: 4872504654109266, guid: 586534c0f9a745b4086c007888993b85, type: 3}
      propertyPath: m_LocalEulerAnglesHint.x
      value: 0.363
      objectReference: {fileID: 0}
    - target: {fileID: 4872504654109266, guid: 586534c0f9a745b4086c007888993b85, type: 3}
      propertyPath: m_LocalEulerAnglesHint.y
      value: 65.832
      objectReference: {fileID: 0}
    - target: {fileID: 4872504654109266, guid: 586534c0f9a745b4086c007888993b85, type: 3}
      propertyPath: m_LocalEulerAnglesHint.z
      value: 0.88000005
      objectReference: {fileID: 0}
    m_RemovedComponents:
    - {fileID: 95627381219248930, guid: 586534c0f9a745b4086c007888993b85, type: 3}
  m_SourcePrefab: {fileID: 100100000, guid: 586534c0f9a745b4086c007888993b85, type: 3}
--- !u!1001 &1913658194
PrefabInstance:
  m_ObjectHideFlags: 0
  serializedVersion: 2
  m_Modification:
    m_TransformParent: {fileID: 0}
    m_Modifications:
    - target: {fileID: 1594832356460434, guid: 586534c0f9a745b4086c007888993b85, type: 3}
      propertyPath: m_Name
      value: Tree (1)
      objectReference: {fileID: 0}
    - target: {fileID: 4872504654109266, guid: 586534c0f9a745b4086c007888993b85, type: 3}
      propertyPath: m_RootOrder
      value: 5
      objectReference: {fileID: 0}
    - target: {fileID: 4872504654109266, guid: 586534c0f9a745b4086c007888993b85, type: 3}
      propertyPath: m_LocalScale.x
      value: 1.1023607
      objectReference: {fileID: 0}
    - target: {fileID: 4872504654109266, guid: 586534c0f9a745b4086c007888993b85, type: 3}
      propertyPath: m_LocalScale.y
      value: 1.1023607
      objectReference: {fileID: 0}
    - target: {fileID: 4872504654109266, guid: 586534c0f9a745b4086c007888993b85, type: 3}
      propertyPath: m_LocalScale.z
      value: 1.1023607
      objectReference: {fileID: 0}
    - target: {fileID: 4872504654109266, guid: 586534c0f9a745b4086c007888993b85, type: 3}
      propertyPath: m_LocalPosition.x
      value: -8.2
      objectReference: {fileID: 0}
    - target: {fileID: 4872504654109266, guid: 586534c0f9a745b4086c007888993b85, type: 3}
      propertyPath: m_LocalPosition.y
      value: 0
      objectReference: {fileID: 0}
    - target: {fileID: 4872504654109266, guid: 586534c0f9a745b4086c007888993b85, type: 3}
      propertyPath: m_LocalPosition.z
      value: -2.9
      objectReference: {fileID: 0}
    - target: {fileID: 4872504654109266, guid: 586534c0f9a745b4086c007888993b85, type: 3}
      propertyPath: m_LocalRotation.w
      value: 0.8394529
      objectReference: {fileID: 0}
    - target: {fileID: 4872504654109266, guid: 586534c0f9a745b4086c007888993b85, type: 3}
      propertyPath: m_LocalRotation.x
      value: 0.006830524
      objectReference: {fileID: 0}
    - target: {fileID: 4872504654109266, guid: 586534c0f9a745b4086c007888993b85, type: 3}
      propertyPath: m_LocalRotation.y
      value: 0.54336905
      objectReference: {fileID: 0}
    - target: {fileID: 4872504654109266, guid: 586534c0f9a745b4086c007888993b85, type: 3}
      propertyPath: m_LocalRotation.z
      value: 0.004725774
      objectReference: {fileID: 0}
    - target: {fileID: 4872504654109266, guid: 586534c0f9a745b4086c007888993b85, type: 3}
      propertyPath: m_LocalEulerAnglesHint.x
      value: 0.363
      objectReference: {fileID: 0}
    - target: {fileID: 4872504654109266, guid: 586534c0f9a745b4086c007888993b85, type: 3}
      propertyPath: m_LocalEulerAnglesHint.y
      value: 65.832
      objectReference: {fileID: 0}
    - target: {fileID: 4872504654109266, guid: 586534c0f9a745b4086c007888993b85, type: 3}
      propertyPath: m_LocalEulerAnglesHint.z
      value: 0.88000005
      objectReference: {fileID: 0}
    m_RemovedComponents:
    - {fileID: 95627381219248930, guid: 586534c0f9a745b4086c007888993b85, type: 3}
  m_SourcePrefab: {fileID: 100100000, guid: 586534c0f9a745b4086c007888993b85, type: 3}
--- !u!1 &2134612587
GameObject:
  m_ObjectHideFlags: 0
  m_CorrespondingSourceObject: {fileID: 0}
  m_PrefabInstance: {fileID: 0}
  m_PrefabAsset: {fileID: 0}
  serializedVersion: 6
  m_Component:
  - component: {fileID: 2134612591}
  - component: {fileID: 2134612590}
  - component: {fileID: 2134612589}
  - component: {fileID: 2134612588}
  m_Layer: 0
  m_Name: Plane
  m_TagString: Untagged
  m_Icon: {fileID: 0}
  m_NavMeshLayer: 0
  m_StaticEditorFlags: 0
  m_IsActive: 1
--- !u!23 &2134612588
MeshRenderer:
  m_ObjectHideFlags: 0
  m_CorrespondingSourceObject: {fileID: 0}
  m_PrefabInstance: {fileID: 0}
  m_PrefabAsset: {fileID: 0}
  m_GameObject: {fileID: 2134612587}
  m_Enabled: 1
  m_CastShadows: 1
  m_ReceiveShadows: 1
  m_DynamicOccludee: 1
  m_MotionVectors: 1
  m_LightProbeUsage: 1
  m_ReflectionProbeUsage: 1
  m_RayTracingMode: 2
  m_RayTraceProcedural: 0
  m_RenderingLayerMask: 1
  m_RendererPriority: 0
  m_Materials:
  - {fileID: 2100000, guid: 1f6a6e5d816950b4e8182b657a043424, type: 2}
  m_StaticBatchInfo:
    firstSubMesh: 0
    subMeshCount: 0
  m_StaticBatchRoot: {fileID: 0}
  m_ProbeAnchor: {fileID: 0}
  m_LightProbeVolumeOverride: {fileID: 0}
  m_ScaleInLightmap: 1
  m_ReceiveGI: 1
  m_PreserveUVs: 1
  m_IgnoreNormalsForChartDetection: 0
  m_ImportantGI: 0
  m_StitchLightmapSeams: 1
  m_SelectedEditorRenderState: 3
  m_MinimumChartSize: 4
  m_AutoUVMaxDistance: 0.5
  m_AutoUVMaxAngle: 89
  m_LightmapParameters: {fileID: 0}
  m_SortingLayerID: 0
  m_SortingLayer: 0
  m_SortingOrder: 0
  m_AdditionalVertexStreams: {fileID: 0}
--- !u!64 &2134612589
MeshCollider:
  m_ObjectHideFlags: 0
  m_CorrespondingSourceObject: {fileID: 0}
  m_PrefabInstance: {fileID: 0}
  m_PrefabAsset: {fileID: 0}
  m_GameObject: {fileID: 2134612587}
  m_Material: {fileID: 0}
  m_IsTrigger: 0
  m_Enabled: 1
  serializedVersion: 4
  m_Convex: 0
  m_CookingOptions: 30
  m_Mesh: {fileID: 10209, guid: 0000000000000000e000000000000000, type: 0}
--- !u!33 &2134612590
MeshFilter:
  m_ObjectHideFlags: 0
  m_CorrespondingSourceObject: {fileID: 0}
  m_PrefabInstance: {fileID: 0}
  m_PrefabAsset: {fileID: 0}
  m_GameObject: {fileID: 2134612587}
  m_Mesh: {fileID: 10209, guid: 0000000000000000e000000000000000, type: 0}
--- !u!4 &2134612591
Transform:
  m_ObjectHideFlags: 0
  m_CorrespondingSourceObject: {fileID: 0}
  m_PrefabInstance: {fileID: 0}
  m_PrefabAsset: {fileID: 0}
  m_GameObject: {fileID: 2134612587}
  m_LocalRotation: {x: 0, y: 0, z: 0, w: 1}
  m_LocalPosition: {x: -4.59, y: 0, z: -5.04}
  m_LocalScale: {x: 9.867326, y: 9.867339, z: 9.867339}
  m_Children: []
  m_Father: {fileID: 0}
  m_RootOrder: 4
  m_LocalEulerAnglesHint: {x: 0, y: 0, z: 0}
