%YAML 1.1
%TAG !u! tag:unity3d.com,2011:
--- !u!114 &11400000
MonoBehaviour:
  m_ObjectHideFlags: 0
  m_CorrespondingSourceObject: {fileID: 0}
  m_PrefabInstance: {fileID: 0}
  m_PrefabAsset: {fileID: 0}
  m_GameObject: {fileID: 0}
  m_Enabled: 1
  m_EditorHideFlags: 0
  m_Script: {fileID: -1893448595, guid: a040fb66244a7f54289914d98ea4ef7d, type: 3}
  m_Name: CapsuleScaling 1
  m_EditorClassIdentifier: 
  _data:
    _json: '{"graph":{"variables":{"collection":{"$content":[],"$version":"A"},"$version":"A"},"controlInputDefinitions":[],"controlOutputDefinitions":[],"valueInputDefinitions":[],"valueOutputDefinitions":[],"title":null,"summary":null,"pan":{"x":0.0,"y":0.0},"zoom":1.0,"elements":[{"coroutine":false,"defaultValues":{},"position":{"x":-476.0,"y":-344.0},"guid":"694bf316-2d0d-4323-9170-4cec444a8c17","$version":"A","$type":"Bolt.Start"},{"coroutine":false,"defaultValues":{},"position":{"x":-483.0,"y":-200.0},"guid":"9fd1da9f-a17e-4795-8df4-512e9b38fddd","$version":"A","$type":"Bolt.Update","$id":"11"},{"chainable":false,"member":{"name":"ClampMagnitude","parameterTypes":["UnityEngine.Vector3","System.Single"],"targetType":"UnityEngine.Vector3","targetTypeName":"UnityEngine.Vector3","$version":"A"},"defaultValues":{"%vector":{"x":0.0,"y":0.0,"z":0.0,"$type":"UnityEngine.Vector3"},"%maxLength":{"$content":1.0,"$type":"System.Single"}},"position":{"x":-138.0,"y":-301.0},"guid":"50c22876-0e75-4f05-bbe9-51c14f00dbc8","$version":"A","$type":"Bolt.InvokeMember","$id":"13"},{"specifyFallback":false,"kind":"Object","defaultValues":{"name":{"$content":"ScaleAxis","$type":"System.String"},"object":null},"position":{"x":-440.0,"y":-56.0},"guid":"253e4ba7-602b-4b25-9786-c7e7dff72c85","$version":"A","$type":"Bolt.GetVariable","$id":"16"},{"specifyFallback":false,"kind":"Object","defaultValues":{"name":{"$content":"ScaleteSpeed","$type":"System.String"},"object":null},"position":{"x":-432.0,"y":89.0},"guid":"f4882073-7b6a-4b7f-bff1-99d4cb861e4b","$version":"A","$type":"Bolt.GetVariable","$id":"18"},{"member":{"name":"time","parameterTypes":null,"targetType":"UnityEngine.Time","targetTypeName":"UnityEngine.Time","$version":"A"},"defaultValues":{},"position":{"x":-337.0,"y":269.0},"guid":"076da158-bc4b-40e1-ab60-a5a119e113d1","$version":"A","$type":"Bolt.GetMember","$id":"20"},{"defaultValues":{},"position":{"x":-67.0,"y":128.0},"guid":"6b716c88-e8a9-4153-b6c8-83826f489b5a","$version":"A","$type":"Bolt.GenericMultiply","$id":"23"},{"defaultValues":{},"position":{"x":140.0,"y":78.0},"guid":"8110ec9f-9afe-4067-8600-397dce0832f5","$version":"A","$type":"Bolt.GenericMultiply","$id":"25"},{"defaultValues":{},"position":{"x":296.0,"y":85.0},"guid":"f626e792-d069-40d1-8a65-6d251635b671","$version":"A","$type":"Bolt.GenericAdd","$id":"27"},{"member":{"name":"localScale","parameterTypes":null,"targetType":"UnityEngine.Transform","targetTypeName":"UnityEngine.Transform","$version":"A"},"defaultValues":{"target":null},"position":{"x":135.0,"y":-63.0},"guid":"496190ed-2a6b-4942-bfdf-44de414d03b0","$version":"A","$type":"Bolt.GetMember","$id":"29"},{"chainable":false,"member":{"name":"localScale","parameterTypes":null,"targetType":"UnityEngine.Transform","targetTypeName":"UnityEngine.Transform","$version":"A"},"defaultValues":{"target":null,"input":{"x":0.0,"y":0.0,"z":0.0,"$type":"UnityEngine.Vector3"}},"position":{"x":324.0,"y":-161.0},"guid":"f55ab629-3d7c-431c-8e15-7ad3bac48dd1","$version":"A","$type":"Bolt.SetMember","$id":"32"},{"sourceUnit":{"$ref":"11"},"sourceKey":"trigger","destinationUnit":{"$ref":"13"},"destinationKey":"enter","guid":"deec97cb-7053-4580-9427-c35a1835b468","$type":"Bolt.ControlConnection"},{"sourceUnit":{"$ref":"13"},"sourceKey":"exit","destinationUnit":{"$ref":"32"},"destinationKey":"assign","guid":"3b35a114-85b2-4c34-8d8f-324da4337b88","$type":"Bolt.ControlConnection"},{"sourceUnit":{"$ref":"16"},"sourceKey":"value","destinationUnit":{"$ref":"13"},"destinationKey":"%vector","guid":"cc311359-306b-4246-9ef6-b44c922027de","$type":"Bolt.ValueConnection"},{"sourceUnit":{"$ref":"18"},"sourceKey":"value","destinationUnit":{"$ref":"23"},"destinationKey":"a","guid":"d7848cb5-3297-4b24-a8fe-9253fa27ab30","$type":"Bolt.ValueConnection"},{"sourceUnit":{"$ref":"20"},"sourceKey":"value","destinationUnit":{"$ref":"23"},"destinationKey":"b","guid":"977a24e7-2c8e-4ee0-8961-0052b4ff75c5","$type":"Bolt.ValueConnection"},{"sourceUnit":{"$ref":"23"},"sourceKey":"product","destinationUnit":{"$ref":"25"},"destinationKey":"b","guid":"268a6d32-bfec-4e57-bcb1-b230a768c2f4","$type":"Bolt.ValueConnection"},{"sourceUnit":{"$ref":"13"},"sourceKey":"result","destinationUnit":{"$ref":"25"},"destinationKey":"a","guid":"4bac3775-93db-4adf-be7d-838f1de1790c","$type":"Bolt.ValueConnection"},{"sourceUnit":{"$ref":"25"},"sourceKey":"product","destinationUnit":{"$ref":"27"},"destinationKey":"b","guid":"d1195cbd-dc07-45d8-8d97-8a3e0c8f7c98","$type":"Bolt.ValueConnection"},{"sourceUnit":{"$ref":"29"},"sourceKey":"value","destinationUnit":{"$ref":"27"},"destinationKey":"a","guid":"f5f53dfe-2418-4eeb-81e5-373f768ebd62","$type":"Bolt.ValueConnection"},{"sourceUnit":{"$ref":"27"},"sourceKey":"sum","destinationUnit":{"$ref":"32"},"destinationKey":"input","guid":"520400f6-05e8-4d50-9238-af84ab25b81c","$type":"Bolt.ValueConnection"}],"$version":"A"}}'
    _objectReferences: []
